<?xml version="1.0" encoding="utf-8"?>
<!-- Generator: Adobe Illustrator 21.1.0, SVG Export Plug-In . SVG Version: 6.00 Build 0)  -->
<svg version="1.1" id="Layer_1" xmlns="http://www.w3.org/2000/svg" xmlns:xlink="http://www.w3.org/1999/xlink" x="0px" y="0px"
	 viewBox="0 0 50 32" enable-background="new 0 0 50 32" xml:space="preserve">
<g>
	<linearGradient id="SVGID_1_" gradientUnits="userSpaceOnUse" x1="0" y1="16" x2="50" y2="16">
		<stop  offset="0" style="stop-color:#A2CD3A"/>
		<stop  offset="1" style="stop-color:#86AF23"/>
	</linearGradient>
	<path fill="url(#SVGID_1_)" d="M48,32H2c-1.105,0-2-0.895-2-2V2c0-1.105,0.895-2,2-2h46c1.105,0,2,0.895,2,2v28
		C50,31.105,49.105,32,48,32z"/>
	<path fill-rule="evenodd" clip-rule="evenodd" fill="#FFFFFF" d="M33.802,16.766c0.378,0,0.684,0.306,0.684,0.684
		s-0.306,0.684-0.684,0.684h-2.218c-0.378,0-0.684-0.306-0.684-0.684s0.306-0.684,0.684-0.684H33.802L33.802,16.766z M34.68,13.867
		c0.378,0,0.684,0.306,0.684,0.684c0,0.378-0.306,0.684-0.684,0.684h-1.821c-0.378,0-0.684-0.306-0.684-0.684
		c0-0.378,0.306-0.684,0.684-0.684H34.68L34.68,13.867z M29.747,15.235h-3.923c-0.212,0.507-0.412,1.02-0.602,1.531h3.94
		l0.044-0.128l0.015-0.04C29.395,16.116,29.571,15.662,29.747,15.235L29.747,15.235z M24.349,15.235
		c-0.205,0.511-0.398,1.024-0.582,1.531h-3.376c-0.378,0-0.684,0.306-0.684,0.684s0.306,0.684,0.684,0.684h2.877
		c-0.74,1.856-1.767,3.245-2.948,4.133c-0.775,0.583-1.618,0.95-2.487,1.091c-0.867,0.141-1.771,0.058-2.67-0.26
		c-1.378-0.486-2.748-1.52-3.98-3.137c-0.562-1.208-0.874-2.552-0.874-3.961c0-2.598,1.053-4.951,2.756-6.654
		c1.703-1.703,4.055-2.756,6.654-2.756c0.807,0,1.59,0.101,2.335,0.292c0.771,0.197,1.503,0.488,2.181,0.86
		c0.331,0.181,0.746,0.061,0.927-0.27c0.182-0.33,0.061-0.746-0.27-0.927c-0.782-0.429-1.621-0.763-2.501-0.988
		c-0.855-0.218-1.751-0.335-2.672-0.335c-2.976,0-5.67,1.206-7.621,3.157c-1.95,1.95-3.157,4.645-3.157,7.621
		c0,2.96,1.203,5.667,3.164,7.627c1.941,1.941,4.623,3.15,7.614,3.15c1.655,0,3.224-0.374,4.627-1.042
		c1.402-0.667,2.637-1.63,3.628-2.81c0.65,0.44,1.329,0.783,2.034,1.026c0.85,0.292,1.737,0.441,2.658,0.441
		c2.318,0,4.416-0.939,5.935-2.458c1.518-1.519,2.458-3.617,2.458-5.934c0-1.169-0.243-2.307-0.699-3.352
		c-0.458-1.05-1.131-2.004-1.985-2.8c-1.028-0.958-2.244-1.61-3.527-1.954c-1.319-0.353-2.713-0.379-4.049-0.074
		c-2.028,0.463-3.525,1.941-4.696,3.828c-0.432,0.696-0.818,1.446-1.17,2.219H21.27c-0.378,0-0.684,0.306-0.684,0.684
		c0,0.378,0.306,0.684,0.684,0.684H24.349L24.349,15.235z M26.439,13.867h3.92c0.909-1.862,1.854-3.064,2.885-3.751
		c0.597-0.398,1.209-0.627,1.847-0.713c-0.197-0.072-0.396-0.135-0.597-0.189c-1.109-0.297-2.277-0.319-3.397-0.064
		c-1.609,0.367-2.842,1.613-3.835,3.214C26.968,12.837,26.695,13.343,26.439,13.867L26.439,13.867z M28.685,18.133
		c-0.423,1.188-0.732,1.978-0.975,2.531c-0.305,0.696-0.498,1.002-0.687,1.272c-0.877,1.078-1.992,1.959-3.264,2.565
		c-1.223,0.582-2.593,0.908-4.039,0.908c-1.238,0-2.416-0.237-3.492-0.668c0.612,0.073,1.222,0.059,1.82-0.038
		c1.09-0.177,2.137-0.631,3.091-1.348c1.486-1.118,2.747-2.877,3.59-5.223H28.685L28.685,18.133z M38.958,12.871
		c-0.639-1.283-1.936-2.183-3.369-2.133c-0.566,0.02-1.092,0.18-1.587,0.51c-1.221,0.814-2.345,2.624-3.5,5.817l-0.004,0.011
		c-0.717,2.097-1.189,3.335-1.539,4.133c-0.094,0.216-0.181,0.401-0.261,0.562c0.557,0.381,1.142,0.678,1.752,0.888
		c0.705,0.243,1.445,0.366,2.215,0.366c1.94,0,3.696-0.786,4.967-2.058c1.271-1.271,2.058-3.028,2.058-4.967
		c0-0.985-0.203-1.937-0.582-2.807C39.061,13.084,39.011,12.977,38.958,12.871z"/>
</g>
</svg>
