<?xml version="1.0" encoding="utf-8"?>
<!-- Generator: Adobe Illustrator 21.1.0, SVG Export Plug-In . SVG Version: 6.00 Build 0)  -->
<svg version="1.1" id="Layer_1" xmlns="http://www.w3.org/2000/svg" xmlns:xlink="http://www.w3.org/1999/xlink" x="0px" y="0px"
	 viewBox="0 0 50 32" enable-background="new 0 0 50 32" xml:space="preserve">
<g>
	<linearGradient id="SVGID_1_" gradientUnits="userSpaceOnUse" x1="0" y1="16" x2="50" y2="16">
		<stop  offset="0.0168" style="stop-color:#23ADE3"/>
		<stop  offset="1" style="stop-color:#2E84BC"/>
	</linearGradient>
	<path fill="url(#SVGID_1_)" d="M48,32H2c-1.105,0-2-0.895-2-2V2c0-1.105,0.895-2,2-2h46c1.105,0,2,0.895,2,2v28
		C50,31.105,49.105,32,48,32z"/>
	<g>
		<path opacity="0.7" fill="#FFFFFF" enable-background="new    " d="M6.74,11.853L5.883,9.764l-0.852,2.088 M25.621,11.021
			c-0.172,0.104-0.376,0.108-0.619,0.108h-1.521V9.965h1.542c0.218,0,0.446,0.01,0.594,0.094c0.162,0.076,0.263,0.239,0.263,0.463
			C25.879,10.752,25.784,10.936,25.621,11.021z M36.473,11.853l-0.867-2.088l-0.862,2.088H36.473z M16.245,14.113h-1.284
			l-0.005-4.103l-1.816,4.103h-1.099l-1.82-4.107v4.107H7.674l-0.481-1.169H4.585l-0.486,1.169h-1.36l2.242-5.239h1.86l2.13,4.96
			v-4.96h2.044l1.639,3.554l1.505-3.554h2.085L16.245,14.113L16.245,14.113z M21.361,14.113h-4.183V8.875h4.183v1.091H18.43v0.944
			h2.86v1.074h-2.86v1.046h2.931V14.113z M27.259,10.285c0,0.835-0.557,1.267-0.882,1.396c0.274,0.104,0.508,0.289,0.62,0.441
			c0.177,0.261,0.207,0.493,0.207,0.961v1.029H25.94l-0.005-0.661c0-0.315,0.03-0.769-0.198-1.021
			c-0.183-0.184-0.462-0.224-0.913-0.224h-1.344v1.905h-1.252V8.875h2.88c0.64,0,1.111,0.017,1.516,0.251
			C27.021,9.36,27.259,9.701,27.259,10.285z M29.263,14.113h-1.278V8.875h1.278V14.113z M44.086,14.113h-1.774l-2.374-3.932v3.932
			h-2.55L36.9,12.945h-2.601l-0.473,1.169h-1.465c-0.609,0-1.379-0.135-1.816-0.579c-0.44-0.445-0.669-1.047-0.669-2
			c0-0.777,0.137-1.487,0.675-2.048c0.405-0.418,1.039-0.611,1.902-0.611h1.212v1.123h-1.187c-0.457,0-0.715,0.068-0.964,0.31
			c-0.214,0.221-0.36,0.638-0.36,1.187c0,0.561,0.112,0.966,0.344,1.23c0.193,0.207,0.543,0.27,0.873,0.27h0.562l1.765-4.12h1.876
			l2.12,4.955V8.875h1.907l2.201,3.649V8.875h1.283V14.113L44.086,14.113z M2.725,15.142h2.139l0.482-1.164h1.08l0.481,1.164h4.21
			v-0.89l0.376,0.893h2.185l0.376-0.907v0.903h10.462l-0.005-1.91h0.202c0.142,0.005,0.183,0.018,0.183,0.252v1.658h5.411v-0.445
			c0.436,0.234,1.115,0.445,2.008,0.445h2.276l0.487-1.164h1.08l0.477,1.164h4.387v-1.105l0.664,1.105h3.515V7.836h-3.479v0.863
			l-0.487-0.863h-3.57v0.863l-0.447-0.863h-4.822c-0.807,0-1.517,0.113-2.09,0.427V7.836H26.98v0.427
			c-0.365-0.324-0.862-0.427-1.414-0.427H13.409l-0.816,1.887l-0.838-1.887H7.927v0.863L7.506,7.836H4.241L2.724,11.31L2.725,15.142
			L2.725,15.142z"/>
		<path opacity="0.7" fill="#FFFFFF" enable-background="new    " d="M47.276,19.007h-2.282c-0.228,0-0.379,0.008-0.507,0.095
			c-0.132,0.085-0.183,0.211-0.183,0.377c0,0.198,0.112,0.332,0.274,0.39c0.132,0.046,0.274,0.059,0.483,0.059l0.679,0.018
			c0.685,0.017,1.142,0.135,1.421,0.422c0.051,0.04,0.081,0.085,0.116,0.13 M47.276,22.461c-0.304,0.445-0.897,0.67-1.699,0.67
			h-2.418v-1.124h2.408c0.239,0,0.406-0.031,0.507-0.13c0.087-0.081,0.148-0.199,0.148-0.342c0-0.153-0.061-0.274-0.153-0.347
			c-0.091-0.08-0.223-0.116-0.441-0.116c-1.176-0.04-2.643,0.036-2.643-1.622c0-0.76,0.483-1.56,1.797-1.56h2.494v-1.043h-2.317
			c-0.699,0-1.207,0.168-1.567,0.428v-0.428h-3.428c-0.548,0-1.192,0.136-1.496,0.428v-0.428h-6.121v0.428
			c-0.487-0.351-1.309-0.428-1.688-0.428H26.62v0.428c-0.385-0.373-1.243-0.428-1.765-0.428h-4.519l-1.034,1.119l-0.968-1.119h-6.75
			v7.312h6.623l1.065-1.137l1.004,1.137l4.082,0.004v-1.72h0.401c0.542,0.008,1.18-0.014,1.744-0.257v1.973h3.367v-1.906h0.162
			c0.207,0,0.228,0.009,0.228,0.216v1.69H40.49c0.649,0,1.328-0.166,1.704-0.468v0.468h3.245c0.675,0,1.335-0.095,1.836-0.337
			V22.461L47.276,22.461z M42.281,20.368c0.244,0.252,0.375,0.571,0.375,1.11c0,1.127-0.704,1.653-1.967,1.653h-2.439v-1.124h2.429
			c0.237,0,0.406-0.031,0.511-0.13c0.086-0.081,0.148-0.199,0.148-0.342c0-0.153-0.067-0.274-0.153-0.347
			c-0.096-0.08-0.228-0.116-0.446-0.116c-1.171-0.04-2.638,0.036-2.638-1.622c0-0.76,0.478-1.56,1.79-1.56h2.51v1.115h-2.297
			c-0.228,0-0.376,0.008-0.502,0.095c-0.137,0.085-0.188,0.211-0.188,0.377c0,0.198,0.117,0.332,0.274,0.39
			c0.132,0.046,0.274,0.059,0.487,0.059l0.674,0.018C41.53,19.963,41.997,20.081,42.281,20.368z M30.981,20.044
			c-0.168,0.099-0.375,0.108-0.618,0.108h-1.521v-1.177h1.542c0.223,0,0.446,0.005,0.598,0.095c0.162,0.085,0.259,0.247,0.259,0.471
			C31.241,19.765,31.144,19.946,30.981,20.044z M31.738,20.696c0.279,0.103,0.507,0.287,0.613,0.44
			c0.177,0.256,0.202,0.495,0.207,0.957v1.039h-1.257v-0.656c0-0.315,0.03-0.782-0.202-1.026c-0.183-0.188-0.462-0.233-0.919-0.233
			h-1.338v1.914h-1.258v-5.24h2.891c0.634,0,1.096,0.028,1.507,0.247c0.395,0.239,0.644,0.566,0.644,1.163
			C32.625,20.139,32.067,20.565,31.738,20.696z M33.32,17.891h4.179v1.084h-2.932v0.953h2.861v1.069h-2.861v1.043l2.932,0.005v1.087
			H33.32V17.891z M24.871,20.31h-1.618v-1.334h1.633c0.452,0,0.766,0.184,0.766,0.642C25.651,20.071,25.352,20.31,24.871,20.31z
			 M22.006,22.655l-1.923-2.134l1.923-2.067V22.655z M17.041,22.039h-3.079v-1.043h2.749v-1.069h-2.749v-0.953h3.139l1.37,1.527
			L17.041,22.039z M26.996,19.618c0,1.456-1.086,1.756-2.181,1.756h-1.562v1.758h-2.434l-1.542-1.735l-1.602,1.735h-4.96v-5.24
			h5.036l1.541,1.718l1.593-1.718h4.001C25.879,17.891,26.996,18.167,26.996,19.618z"/>
	</g>
</g>
</svg>
