<?xml version="1.0" encoding="utf-8"?>
<!-- Generator: Adobe Illustrator 21.1.0, SVG Export Plug-In . SVG Version: 6.00 Build 0)  -->
<svg version="1.1" id="Layer_1" xmlns="http://www.w3.org/2000/svg" xmlns:xlink="http://www.w3.org/1999/xlink" x="0px" y="0px"
	 viewBox="0 0 750 138" style="enable-background:new 0 0 750 138;" xml:space="preserve">
<style type="text/css">
	.st0{opacity:0.4;}
	.st1{opacity:0.4;fill:url(#SVGID_1_);enable-background:new    ;}
	.st2{fill:url(#SVGID_2_);}
	.st3{fill:url(#SVGID_3_);}
	.st4{fill:#FFFFFF;}
	.st5{opacity:0.7;fill:#FFFFFF;enable-background:new    ;}
</style>
<g class="st0">
	
		<linearGradient id="SVGID_1_" gradientUnits="userSpaceOnUse" x1="375" y1="-1307.3984" x2="375" y2="-1194.3984" gradientTransform="matrix(1 0 0 -1 0 -1194.3984)">
		<stop  offset="6.236541e-04" style="stop-color:#B7B7B7;stop-opacity:0.4"/>
		<stop  offset="0.6615" style="stop-color:#FFFFFF;stop-opacity:0"/>
	</linearGradient>
	<path class="st1" d="M257.8,113L257.8,113h13.4h23.6h0.8h14.8c5.7,0,123.6,0,129.3,0h300.5h9.4h0.4V18.1C750,4,738.7,0,729.7,0
		H20.3C11.3,0,0,4,0,18.1V113l0,0H257.8L257.8,113z"/>
</g>
<g>
	
		<linearGradient id="SVGID_2_" gradientUnits="userSpaceOnUse" x1="29" y1="-31.3" x2="721" y2="-31.3" gradientTransform="matrix(1 0 0 1 0 106)">
		<stop  offset="0" style="stop-color:#798ED1"/>
		<stop  offset="1" style="stop-color:#6565C6"/>
	</linearGradient>
	<path class="st2" d="M266.9,109.7L266.9,109.7h12.4H301h0.8h13.6c5.2,0,8.2,2.2,11.8,5.9c0.5,0.5,1,1,1.5,1.5
		c12,11.6,28.3,18.8,46.3,18.8c13.9,0,26.9-4.3,37.6-11.7c3.7-2.5,7.1-5.4,10.2-8.6c3.7-3.8,6.6-5.9,11.8-5.9h277.3h8.7h0.4V28.5
		c0-8.3-6.7-15-15-15H44c-8.3,0-15,6.7-15,15v81.2l0,0H266.9z"/>
</g>
<linearGradient id="SVGID_3_" gradientUnits="userSpaceOnUse" x1="375" y1="-46" x2="375" y2="31.3" gradientTransform="matrix(1 0 0 1 0 106)">
	<stop  offset="0" style="stop-color:#6565C6;stop-opacity:0"/>
	<stop  offset="1" style="stop-color:#6161C1"/>
</linearGradient>
<path class="st3" d="M262.9,111L262.9,111h12.3H297h0.8h13.6c5.2,0,8.2,2.2,11.8,6c0.5,0.5,1,1,1.5,1.5c12,11.7,28.3,18.8,46.3,18.8
	c13.9,0,34.6-3.9,45.3-11.3c3.7-2.5,6.4-5.1,9.5-8.3c3.7-3.8,9.5-6.6,14.8-6.6h267.2H721V60h-13.2c0,0-387,0-396.4,0h-13.6H297
	h-21.7H263H29v51H262.9L262.9,111z"/>
<g>
	<path class="st4" d="M720.5,108.2h-8.7H434.6c-5.2,0-8.2,2.2-11.8,5.9c-3.1,3.2-6.5,6.1-10.2,8.6c-10.7,7.4-23.6,11.7-37.6,11.7
		c-18,0-34.2-7.2-46.3-18.8c-0.5-0.5-1-1-1.5-1.5c-3.7-3.8-6.6-5.9-11.8-5.9h-13.6H301h-21.7H267l0,0H29.2H0V138h750v-29.8H720.5z"
		/>
</g>
<path class="st5" d="M630.7,52.3l-13.9,33h-9.1L600.9,59c-0.4-1.6-0.8-2.2-2-2.9c-2.1-1.1-5.5-2.2-8.5-2.8l0.2-1h14.6
	c1.9,0,3.5,1.2,4,3.4l3.6,19.1l8.9-22.5C621.7,52.3,630.7,52.3,630.7,52.3z M666.1,74.6c0-8.7-12.1-9.2-12-13.1
	c0-1.2,1.2-2.4,3.6-2.8c1.2-0.2,4.6-0.3,8.4,1.5l1.5-7c-2.1-0.7-4.7-1.5-8-1.5c-8.5,0-14.4,4.5-14.5,10.9c-0.1,4.8,4.3,7.4,7.5,9
	c3.3,1.6,4.5,2.7,4.4,4.1c0,2.2-2.7,3.2-5.1,3.2c-4.3,0.1-6.8-1.2-8.8-2.1l-1.6,7.2c2,0.9,5.7,1.7,9.5,1.8
	C660.2,85.9,666.1,81.5,666.1,74.6 M688.5,85.4h7.9l-6.9-33h-7.3c-1.6,0-3,1-3.6,2.4l-12.9,30.6h9l1.8-4.9h11L688.5,85.4z
	 M678.9,73.7l4.5-12.4l2.6,12.4H678.9z M642.9,52.3l-7.1,33h-8.6l7.1-33C634.3,52.3,642.9,52.3,642.9,52.3z"/>
</svg>
