<?xml version="1.0" encoding="utf-8"?>
<!-- Generator: Adobe Illustrator 21.1.0, SVG Export Plug-In . SVG Version: 6.00 Build 0)  -->
<svg version="1.1" id="Layer_1" xmlns="http://www.w3.org/2000/svg" xmlns:xlink="http://www.w3.org/1999/xlink" x="0px" y="0px"
	 viewBox="0 0 50 32" enable-background="new 0 0 50 32" xml:space="preserve">
<linearGradient id="SVGID_1_" gradientUnits="userSpaceOnUse" x1="0" y1="16" x2="50" y2="16">
	<stop  offset="0" style="stop-color:#16ADB5"/>
	<stop  offset="1" style="stop-color:#1299A0"/>
</linearGradient>
<path fill="url(#SVGID_1_)" d="M48,32H2c-1.105,0-2-0.895-2-2V2c0-1.105,0.895-2,2-2h46c1.105,0,2,0.895,2,2v28
	C50,31.105,49.105,32,48,32z"/>
<g opacity="0.8">
	<g>
		<g>
			<path fill="#FFFFFF" d="M18.092,12.485c0-0.584-0.305-0.545-0.597-0.552v-0.168c0.253,0.012,0.512,0.012,0.766,0.012
				c0.272,0,0.642-0.012,1.123-0.012c1.68,0,2.595,1.122,2.595,2.271c0,0.643-0.376,2.258-2.673,2.258
				c-0.33,0-0.636-0.013-0.941-0.013c-0.292,0-0.578,0.007-0.87,0.013v-0.169c0.389-0.039,0.578-0.052,0.597-0.493V12.485z
				 M18.727,15.529c0,0.5,0.357,0.558,0.675,0.558c1.402,0,1.862-1.057,1.862-2.024c0-1.213-0.779-2.089-2.031-2.089
				c-0.266,0-0.389,0.019-0.506,0.026V15.529z"/>
			<path fill="#FFFFFF" d="M22.206,16.126h0.123c0.182,0,0.311,0,0.311-0.215v-1.758c0-0.286-0.097-0.325-0.338-0.454v-0.104
				c0.305-0.091,0.669-0.214,0.695-0.234c0.046-0.025,0.084-0.032,0.117-0.032c0.032,0,0.045,0.039,0.045,0.09v2.491
				c0,0.215,0.143,0.215,0.324,0.215h0.11v0.169c-0.221,0-0.448-0.013-0.681-0.013c-0.234,0-0.467,0.007-0.707,0.013V16.126z
				 M22.901,12.33c-0.169,0-0.318-0.156-0.318-0.324c0-0.162,0.156-0.312,0.318-0.312c0.168,0,0.318,0.137,0.318,0.312
				C23.219,12.181,23.076,12.33,22.901,12.33z"/>
			<path fill="#FFFFFF" d="M24.211,14.192c0-0.24-0.071-0.304-0.376-0.427v-0.124c0.279-0.091,0.545-0.176,0.856-0.311
				c0.02,0,0.039,0.013,0.039,0.064v0.423c0.371-0.267,0.689-0.487,1.123-0.487c0.552,0,0.746,0.402,0.746,0.908v1.673
				c0,0.215,0.143,0.215,0.324,0.215h0.117v0.169c-0.228,0-0.455-0.013-0.688-0.013c-0.234,0-0.468,0.007-0.701,0.013v-0.169h0.117
				c0.182,0,0.311,0,0.311-0.215v-1.679c0-0.371-0.227-0.552-0.597-0.552c-0.208,0-0.538,0.168-0.753,0.312v1.92
				c0,0.215,0.144,0.215,0.326,0.215h0.117v0.169c-0.227,0-0.455-0.013-0.689-0.013c-0.233,0-0.467,0.007-0.7,0.013v-0.169h0.118
				c0.181,0,0.311,0,0.311-0.215V14.192z"/>
			<path fill="#FFFFFF" d="M27.535,14.504c-0.014,0.058-0.014,0.155,0,0.376c0.038,0.617,0.434,1.123,0.953,1.123
				c0.357,0,0.637-0.195,0.876-0.435l0.091,0.091c-0.299,0.396-0.668,0.733-1.2,0.733c-1.032,0-1.24-0.999-1.24-1.414
				c0-1.272,0.856-1.648,1.31-1.648c0.526,0,1.091,0.33,1.097,1.018c0,0.04,0,0.078-0.006,0.117l-0.059,0.039H27.535z
				 M28.683,14.296c0.162,0,0.181-0.084,0.181-0.162c0-0.332-0.201-0.598-0.564-0.598c-0.395,0-0.668,0.292-0.746,0.759H28.683z"/>
			<path fill="#FFFFFF" d="M29.572,16.126h0.176c0.181,0,0.31,0,0.31-0.215v-1.823c0-0.201-0.24-0.24-0.337-0.292V13.7
				c0.474-0.202,0.734-0.37,0.792-0.37c0.038,0,0.058,0.019,0.058,0.084v0.584h0.014c0.162-0.253,0.434-0.668,0.83-0.668
				c0.162,0,0.369,0.11,0.369,0.344c0,0.175-0.122,0.332-0.305,0.332c-0.202,0-0.202-0.156-0.428-0.156
				c-0.11,0-0.474,0.149-0.474,0.539v1.524c0,0.215,0.129,0.215,0.311,0.215h0.363v0.169c-0.357-0.006-0.629-0.013-0.908-0.013
				c-0.266,0-0.539,0.007-0.773,0.013V16.126z"/>
			<path fill="#FFFFFF" d="M32.07,15.393c0.085,0.428,0.344,0.792,0.818,0.792c0.382,0,0.524-0.234,0.524-0.461
				c0-0.765-1.413-0.52-1.413-1.564c0-0.364,0.292-0.83,1.006-0.83c0.207,0,0.486,0.058,0.739,0.188l0.046,0.662h-0.149
				c-0.065-0.409-0.292-0.643-0.708-0.643c-0.26,0-0.506,0.15-0.506,0.428c0,0.76,1.505,0.526,1.505,1.545
				c0,0.428-0.344,0.882-1.116,0.882c-0.261,0-0.565-0.091-0.792-0.22l-0.071-0.747L32.07,15.393z"/>
			<path fill="#FFFFFF" d="M39.792,12.94H39.63c-0.123-0.759-0.662-1.064-1.388-1.064c-0.747,0-1.831,0.499-1.831,2.056
				c0,1.312,0.936,2.253,1.934,2.253c0.642,0,1.175-0.441,1.305-1.123l0.149,0.039l-0.149,0.948
				c-0.273,0.169-1.007,0.344-1.435,0.344c-1.518,0-2.478-0.98-2.478-2.44c0-1.33,1.187-2.285,2.459-2.285
				c0.526,0,1.031,0.169,1.531,0.344L39.792,12.94z"/>
			<path fill="#FFFFFF" d="M40.026,16.126h0.124c0.182,0,0.312,0,0.312-0.215v-3.613c0-0.422-0.097-0.436-0.344-0.507v-0.104
				c0.259-0.084,0.532-0.2,0.669-0.279c0.071-0.039,0.123-0.072,0.143-0.072c0.039,0,0.052,0.039,0.052,0.091v4.483
				c0,0.215,0.143,0.215,0.325,0.215h0.11v0.169c-0.22,0-0.447-0.013-0.682-0.013c-0.233,0-0.466,0.007-0.708,0.013V16.126z"/>
			<path fill="#FFFFFF" d="M44.193,15.938c0,0.117,0.071,0.123,0.181,0.123c0.078,0,0.176-0.006,0.26-0.006v0.137
				c-0.28,0.026-0.811,0.162-0.936,0.201l-0.032-0.019v-0.525c-0.389,0.318-0.688,0.544-1.149,0.544
				c-0.35,0-0.713-0.227-0.713-0.771v-1.662c0-0.169-0.026-0.332-0.389-0.363v-0.123c0.234-0.007,0.752-0.045,0.837-0.045
				c0.072,0,0.072,0.045,0.072,0.188v1.674c0,0.194,0,0.753,0.564,0.753c0.22,0,0.512-0.169,0.784-0.395V13.9
				c0-0.129-0.311-0.2-0.544-0.266v-0.117c0.584-0.039,0.948-0.09,1.012-0.09c0.052,0,0.052,0.045,0.052,0.117V15.938z"/>
			<path fill="#FFFFFF" d="M45.484,13.796c0.26-0.22,0.611-0.466,0.967-0.466c0.753,0,1.207,0.656,1.207,1.362
				c0,0.85-0.623,1.7-1.552,1.7c-0.48,0-0.732-0.156-0.901-0.227l-0.195,0.149l-0.136-0.071c0.057-0.383,0.09-0.76,0.09-1.155v-2.79
				c0-0.422-0.097-0.436-0.344-0.507v-0.104c0.26-0.084,0.532-0.2,0.669-0.279c0.071-0.039,0.123-0.072,0.143-0.072
				c0.039,0,0.051,0.039,0.051,0.091V13.796z M45.484,15.561c0,0.247,0.233,0.662,0.669,0.662c0.695,0,0.987-0.682,0.987-1.259
				c0-0.7-0.533-1.284-1.038-1.284c-0.241,0-0.442,0.156-0.617,0.306V15.561z"/>
		</g>
		<g>
			<path fill="#FFFFFF" d="M17.488,20.068h0.049c0.127,0,0.261-0.017,0.261-0.201v-1.85c0-0.184-0.135-0.201-0.261-0.201h-0.049
				v-0.107c0.138,0,0.349,0.014,0.523,0.014c0.176,0,0.388-0.014,0.554-0.014v0.107h-0.049c-0.127,0-0.261,0.017-0.261,0.201v1.85
				c0,0.184,0.135,0.201,0.261,0.201h0.049v0.107c-0.169,0-0.382-0.014-0.558-0.014c-0.173,0-0.381,0.014-0.519,0.014V20.068z"/>
			<path fill="#FFFFFF" d="M18.565,20.189c-0.171,0-0.382-0.014-0.558-0.014l0,0c-0.173,0-0.381,0.014-0.519,0.014l0,0h-0.016
				v-0.015v-0.106v-0.015h0.016h0.049c0.128-0.003,0.245-0.014,0.246-0.187l0,0v-1.85c-0.001-0.173-0.118-0.184-0.246-0.187l0,0
				h-0.065v-0.014v-0.122h0.016c0.139,0,0.35,0.014,0.523,0.014l0,0c0.176,0,0.387-0.014,0.554-0.014l0,0h0.016v0.016v0.12h-0.016
				h-0.049c-0.128,0.002-0.246,0.014-0.246,0.187l0,0v1.85c0.001,0.173,0.118,0.184,0.246,0.187l0,0h0.065v0.015v0.121H18.565
				L18.565,20.189z M18.549,20.159l0-0.075h-0.034c-0.126,0-0.277-0.022-0.277-0.217l0,0v-1.85c0.001-0.195,0.151-0.217,0.277-0.217
				l0,0h0.034v-0.075c-0.163,0-0.368,0.014-0.539,0.014l0,0c-0.168,0-0.371-0.013-0.507-0.014l0,0V17.8h0.034
				c0.126,0,0.276,0.022,0.276,0.217l0,0v1.85c0,0.195-0.151,0.217-0.276,0.217l0,0h-0.034v0.075
				c0.137-0.002,0.336-0.014,0.504-0.014l0,0C18.179,20.145,18.383,20.158,18.549,20.159L18.549,20.159z"/>
		</g>
		<g>
			<path fill="#FFFFFF" d="M20.991,19.478l0.007-0.007v-1.324c0-0.289-0.201-0.332-0.308-0.332h-0.077v-0.107
				c0.166,0,0.329,0.014,0.494,0.014c0.144,0,0.29-0.014,0.434-0.014v0.107h-0.052c-0.149,0-0.315,0.028-0.315,0.448v1.607
				c0,0.123,0.004,0.247,0.021,0.356h-0.134L19.243,18.2v1.454c0,0.308,0.059,0.413,0.331,0.413h0.06v0.107
				c-0.152,0-0.304-0.014-0.456-0.014c-0.158,0-0.321,0.014-0.48,0.014v-0.107h0.049c0.244,0,0.318-0.165,0.318-0.448v-1.487
				c0-0.198-0.163-0.317-0.321-0.317h-0.046v-0.107c0.134,0,0.272,0.014,0.406,0.014c0.106,0,0.209-0.014,0.315-0.014L20.991,19.478
				z"/>
			<path fill="#FFFFFF" d="M21.195,20.243l-0.145-0.005l-1.792-1.997v1.415c0.005,0.307,0.051,0.395,0.317,0.398l0,0h0.076v0.014
				v0.122h-0.016c-0.153,0-0.305-0.014-0.456-0.014l0,0c-0.157,0-0.32,0.014-0.48,0.014l0,0h-0.015v-0.015v-0.121h0.015h0.05
				c0.234-0.002,0.3-0.152,0.303-0.433l0,0v-1.487c-0.001-0.188-0.155-0.302-0.307-0.303l0,0h-0.062v-0.016v-0.12h0.015
				c0.135,0,0.273,0.014,0.406,0.014l0,0c0.105,0,0.207-0.014,0.326-0.008l0,0l1.551,1.746v-1.299
				c-0.002-0.281-0.189-0.315-0.292-0.317l0,0h-0.093v-0.016v-0.12h0.016c0.166,0,0.329,0.014,0.494,0.014l0,0
				c0.143,0,0.288-0.014,0.434-0.014l0,0h0.016v0.014v0.122h-0.016h-0.052c-0.146,0.004-0.295,0.017-0.299,0.433l0,0v1.607
				c0,0.123,0.004,0.246,0.021,0.354l0,0l0.003,0.018H21.195L21.195,20.243z M21.061,20.211h0.117
				c-0.016-0.106-0.018-0.224-0.018-0.341l0,0v-1.607c0-0.424,0.177-0.463,0.329-0.463l0,0h0.037v-0.075
				c-0.14,0.001-0.279,0.014-0.419,0.014l0,0c-0.162,0-0.319-0.013-0.479-0.014l0,0V17.8h0.062c0.109,0,0.323,0.048,0.323,0.347l0,0
				l-0.004,1.335l-0.008,0.007L20.989,19.5l-1.57-1.775c-0.105,0-0.207,0.014-0.315,0.014l0,0c-0.129,0-0.262-0.013-0.39-0.014l0,0
				L18.714,17.8h0.031c0.166,0,0.336,0.126,0.336,0.333l0,0v1.487c0,0.283-0.079,0.463-0.333,0.464l0,0l-0.034-0.001v0.076
				c0.153-0.002,0.31-0.014,0.464-0.014l0,0c0.148,0,0.295,0.013,0.44,0.014l0,0v-0.075h-0.045
				c-0.278-0.001-0.347-0.122-0.347-0.429l0,0v-1.494L21.061,20.211L21.061,20.211z M20.991,19.478l0.011-0.01L20.991,19.478
				L20.991,19.478z M20.982,19.471V19.47l-0.003-0.002L20.982,19.471L20.982,19.471z"/>
		</g>
		<g>
			<path fill="#FFFFFF" d="M22.07,17.886c-0.265,0-0.275,0.064-0.328,0.321h-0.106c0.014-0.099,0.032-0.197,0.043-0.3
				c0.014-0.099,0.021-0.198,0.021-0.3h0.085c0.028,0.106,0.116,0.102,0.212,0.102h1.822c0.095,0,0.184-0.003,0.191-0.109
				l0.084,0.014c-0.013,0.094-0.027,0.19-0.038,0.286c-0.007,0.095-0.007,0.191-0.007,0.286l-0.106,0.04
				c-0.007-0.131-0.025-0.34-0.261-0.34h-0.579v1.879c0,0.273,0.124,0.303,0.293,0.303h0.067v0.107
				c-0.138,0-0.385-0.014-0.575-0.014c-0.212,0-0.459,0.014-0.597,0.014v-0.107h0.067c0.195,0,0.293-0.017,0.293-0.295v-1.886H22.07
				z"/>
			<path fill="#FFFFFF" d="M23.462,20.189c-0.139,0-0.386-0.014-0.576-0.014l0,0c-0.212,0-0.458,0.014-0.597,0.014l0,0h-0.015
				v-0.015v-0.121h0.015h0.067c0.195-0.005,0.273-0.007,0.277-0.281l0,0v-1.871H22.07v-0.015v-0.015h0.595v1.901
				c0,0.283-0.114,0.312-0.308,0.312l0,0h-0.052v0.075c0.14-0.001,0.377-0.014,0.582-0.014l0,0c0.184,0,0.42,0.013,0.56,0.014l0,0
				v-0.075h-0.051c-0.171,0-0.309-0.042-0.309-0.32l0,0v-1.894h0.595c0.237,0.001,0.268,0.202,0.276,0.333l0,0l0.077-0.028
				c0-0.091,0.001-0.184,0.006-0.277l0,0c0.01-0.09,0.023-0.181,0.036-0.271l0,0l-0.054-0.009c-0.017,0.102-0.116,0.108-0.205,0.107
				l0,0h-1.821c-0.007,0-0.013,0-0.018,0l0,0c-0.083,0-0.173-0.004-0.205-0.102l0,0h-0.059c0,0.097-0.007,0.192-0.021,0.286l0,0
				c-0.01,0.097-0.026,0.19-0.039,0.283l0,0h0.075c0.047-0.246,0.077-0.326,0.34-0.321l0,0v0.015v0.015
				c-0.261,0.005-0.255,0.049-0.313,0.31l0,0l-0.002,0.012h-0.013h-0.124l0.002-0.018c0.014-0.099,0.032-0.197,0.043-0.3l0,0
				c0.014-0.098,0.021-0.196,0.021-0.297l0,0v-0.016H21.7h0.097l0.002,0.011c0.024,0.089,0.089,0.09,0.179,0.091l0,0
				c0.006,0,0.011,0,0.018,0l0,0h1.821c0.098-0.002,0.17-0.004,0.176-0.096l0,0l0.001-0.016l0.016,0.003l0.099,0.016l-0.002,0.015
				c-0.014,0.095-0.028,0.19-0.038,0.285l0,0c-0.007,0.094-0.007,0.19-0.007,0.285l0,0v0.011l-0.01,0.004l-0.125,0.046l-0.001-0.021
				c-0.01-0.132-0.024-0.325-0.247-0.325l0,0h-0.564v1.864c0.004,0.267,0.11,0.285,0.278,0.289l0,0h0.082v0.014v0.122H23.462
				L23.462,20.189z"/>
		</g>
		<g>
			<path fill="#FFFFFF" d="M24.207,20.068h0.049c0.127,0,0.261-0.017,0.261-0.201v-1.85c0-0.184-0.134-0.201-0.261-0.201h-0.049
				v-0.107c0.215,0,0.583,0.014,0.879,0.014c0.297,0,0.664-0.014,0.903-0.014c-0.006,0.152-0.002,0.386,0.008,0.541l-0.107,0.028
				c-0.017-0.229-0.059-0.413-0.43-0.413h-0.49v0.924h0.419c0.212,0,0.259-0.119,0.279-0.31h0.105
				c-0.007,0.138-0.01,0.275-0.01,0.413c0,0.135,0.004,0.268,0.01,0.403l-0.105,0.021c-0.02-0.212-0.031-0.35-0.276-0.35H24.97
				v0.823c0,0.23,0.204,0.23,0.43,0.23c0.424,0,0.611-0.028,0.717-0.431l0.099,0.025c-0.046,0.188-0.088,0.374-0.12,0.561
				c-0.226,0-0.632-0.014-0.95-0.014c-0.318,0-0.738,0.014-0.939,0.014V20.068z"/>
			<path fill="#FFFFFF" d="M26.095,20.189c-0.227,0-0.633-0.014-0.95-0.014l0,0c-0.318,0-0.737,0.014-0.939,0.014l0,0h-0.016v-0.015
				v-0.107v-0.014h0.016h0.049c0.128-0.002,0.244-0.014,0.245-0.187l0,0v-1.85c-0.001-0.172-0.118-0.184-0.245-0.187l0,0h-0.065
				v-0.014v-0.122h0.016c0.215,0,0.583,0.014,0.879,0.014l0,0c0.296,0,0.663-0.014,0.903-0.014l0,0h0.016v0.016
				C26.002,17.763,26,17.825,26,17.893l0,0c0,0.122,0.004,0.255,0.011,0.356l0,0v0.013L26,18.265l-0.124,0.033l-0.001-0.019
				c-0.021-0.229-0.051-0.395-0.415-0.398l0,0h-0.476v0.894h0.405c0.204-0.001,0.239-0.106,0.264-0.296l0,0l0.001-0.014h0.014h0.122
				v0.016c-0.007,0.138-0.011,0.275-0.011,0.413l0,0c0,0.134,0.004,0.268,0.011,0.403l0,0v0.012l-0.013,0.003l-0.123,0.024
				l-0.001-0.016c-0.024-0.215-0.026-0.333-0.26-0.336l0,0l-0.409-0.001v0.808c0.001,0.215,0.185,0.214,0.416,0.215l0,0
				c0.425-0.002,0.595-0.023,0.702-0.42l0,0l0.004-0.014l0.015,0.003l0.113,0.029l-0.003,0.014c-0.046,0.187-0.088,0.374-0.119,0.56
				l0,0l-0.002,0.013H26.095L26.095,20.189z M26.082,20.158c0.03-0.178,0.071-0.357,0.115-0.534l0,0l-0.07-0.017
				c-0.106,0.395-0.31,0.43-0.727,0.427l0,0c-0.223,0-0.445,0-0.446-0.245l0,0v-0.838h0.439c0.247-0.003,0.271,0.146,0.289,0.347
				l0,0l0.076-0.016c-0.006-0.13-0.01-0.261-0.01-0.391l0,0c0-0.132,0.004-0.265,0.01-0.398l0,0h-0.076
				c-0.02,0.185-0.077,0.314-0.292,0.311l0,0h-0.436v-0.956h0.507c0.367-0.002,0.428,0.188,0.443,0.409l0,0l0.076-0.02
				c-0.006-0.1-0.01-0.227-0.01-0.345l0,0c0-0.061,0.001-0.118,0.003-0.168l0,0c-0.24,0.001-0.598,0.014-0.888,0.014l0,0
				c-0.29,0-0.648-0.013-0.864-0.014l0,0V17.8h0.034c0.126,0,0.276,0.022,0.277,0.217l0,0v1.85
				c-0.001,0.195-0.151,0.216-0.277,0.217l0,0h-0.034v0.075c0.205-0.001,0.614-0.014,0.924-0.014l0,0
				C25.457,20.145,25.854,20.158,26.082,20.158L26.082,20.158z"/>
		</g>
		<g>
			<path fill="#FFFFFF" d="M26.692,18.084c0-0.258-0.141-0.268-0.251-0.268h-0.064v-0.107c0.113,0,0.332,0.014,0.548,0.014
				c0.211,0,0.381-0.014,0.569-0.014c0.444,0,0.839,0.12,0.839,0.622c0,0.318-0.211,0.511-0.49,0.622l0.604,0.903
				c0.099,0.15,0.168,0.191,0.342,0.212v0.107c-0.116,0-0.229-0.014-0.346-0.014c-0.11,0-0.223,0.014-0.332,0.014
				c-0.272-0.356-0.505-0.738-0.735-1.144h-0.232v0.756c0,0.273,0.127,0.282,0.289,0.282h0.064v0.107
				c-0.202,0-0.407-0.014-0.608-0.014c-0.169,0-0.335,0.014-0.512,0.014v-0.107h0.064c0.13,0,0.251-0.059,0.251-0.19V18.084z
				 M27.144,18.903h0.172c0.354,0,0.544-0.134,0.544-0.551c0-0.314-0.201-0.516-0.516-0.516c-0.107,0-0.152,0.011-0.2,0.014V18.903z
				"/>
			<path fill="#FFFFFF" d="M28.789,20.189c-0.118,0-0.23-0.014-0.347-0.014l0,0c-0.107,0-0.221,0.014-0.344,0.008l0,0
				c-0.27-0.356-0.502-0.735-0.731-1.138l0,0h-0.208v0.74c0.004,0.266,0.11,0.264,0.274,0.268l0,0h0.079v0.014v0.122h-0.016
				c-0.202,0-0.407-0.014-0.607-0.014l0,0c-0.169,0-0.334,0.014-0.512,0.014l0,0h-0.014v-0.015v-0.121h0.014h0.064
				c0.127-0.001,0.233-0.057,0.235-0.176l0,0v-1.794c-0.002-0.25-0.125-0.25-0.235-0.253l0,0h-0.079v-0.014v-0.122h0.014
				c0.115,0,0.333,0.014,0.548,0.014l0,0c0.21,0,0.38-0.014,0.569-0.014l0,0c0.444,0,0.854,0.124,0.856,0.636l0,0
				c0,0.319-0.211,0.518-0.483,0.629l0,0l0.593,0.888c0.099,0.147,0.16,0.184,0.332,0.206l0,0l0.013,0.001v0.013v0.122H28.789
				L28.789,20.189z M27.144,19.015h0.241l0.004,0.008c0.23,0.406,0.462,0.787,0.722,1.137l0,0c0.108,0,0.221-0.014,0.331-0.014l0,0
				c0.113,0,0.222,0.012,0.332,0.014l0,0v-0.078c-0.166-0.02-0.243-0.07-0.339-0.216l0,0l-0.615-0.919l0.018-0.007
				c0.276-0.109,0.48-0.297,0.481-0.608l0,0c-0.001-0.489-0.382-0.604-0.825-0.605l0,0c-0.187,0-0.357,0.014-0.569,0.014l0,0
				c-0.208,0-0.417-0.013-0.533-0.014l0,0V17.8h0.049c0.11,0,0.265,0.018,0.265,0.283l0,0v1.794c0,0.142-0.132,0.206-0.265,0.206
				l0,0h-0.049v0.075c0.17-0.001,0.33-0.014,0.496-0.014l0,0c0.198,0,0.397,0.013,0.592,0.014l0,0v-0.075h-0.048
				c-0.161,0-0.305-0.02-0.305-0.298l0,0v-0.771H27.144L27.144,19.015z M27.144,18.918h-0.015v-1.081l0.014-0.001
				c0.048-0.004,0.096-0.013,0.203-0.013l0,0c0.321,0,0.531,0.209,0.531,0.531l0,0c-0.001,0.421-0.203,0.565-0.559,0.565l0,0H27.144
				L27.144,18.918z M27.317,18.888c0.349-0.004,0.526-0.125,0.529-0.535l0,0c-0.002-0.308-0.194-0.499-0.501-0.501l0,0
				c-0.096,0-0.14,0.008-0.185,0.013l0,0v1.023H27.317L27.317,18.888z"/>
		</g>
		<g>
			<path fill="#FFFFFF" d="M31.186,19.478l0.007-0.007v-1.324c0-0.289-0.201-0.332-0.307-0.332h-0.078v-0.107
				c0.167,0,0.328,0.014,0.495,0.014c0.145,0,0.289-0.014,0.435-0.014v0.107h-0.053c-0.149,0-0.315,0.028-0.315,0.448v1.607
				c0,0.123,0.003,0.247,0.02,0.356h-0.134L29.439,18.2v1.454c0,0.308,0.06,0.413,0.332,0.413h0.06v0.107
				c-0.152,0-0.304-0.014-0.456-0.014c-0.159,0-0.321,0.014-0.48,0.014v-0.107h0.048c0.244,0,0.318-0.165,0.318-0.448v-1.487
				c0-0.198-0.162-0.317-0.321-0.317h-0.046v-0.107c0.134,0,0.272,0.014,0.406,0.014c0.106,0,0.208-0.014,0.314-0.014L31.186,19.478
				z"/>
			<path fill="#FFFFFF" d="M31.391,20.243l-0.145-0.005l-1.792-1.997v1.415c0.005,0.308,0.051,0.395,0.317,0.398l0,0h0.075v0.014
				v0.122H29.83c-0.153,0-0.304-0.014-0.456-0.014l0,0c-0.158,0-0.321,0.014-0.48,0.014l0,0h-0.017v-0.015v-0.121h0.017h0.048
				c0.233-0.001,0.3-0.152,0.303-0.434l0,0v-1.486c-0.001-0.188-0.154-0.302-0.305-0.303l0,0h-0.062v-0.014v-0.122h0.017
				c0.134,0,0.273,0.014,0.406,0.014l0,0c0.104,0,0.206-0.014,0.324-0.01l0,0l1.552,1.747v-1.299c0-0.281-0.189-0.315-0.292-0.317
				l0,0h-0.093v-0.014v-0.122h0.015c0.167,0,0.33,0.014,0.495,0.014l0,0c0.144,0,0.289-0.014,0.434-0.014l0,0h0.015v0.016v0.12
				h-0.015h-0.052c-0.146,0.004-0.296,0.017-0.3,0.433l0,0v1.607c0,0.123,0.003,0.245,0.021,0.354l0,0l0.002,0.018H31.391
				L31.391,20.243z M31.257,20.211h0.116c-0.015-0.105-0.018-0.224-0.018-0.341l0,0v-1.607c0-0.424,0.179-0.463,0.33-0.463l0,0
				h0.037v-0.075c-0.139,0.001-0.279,0.014-0.419,0.014l0,0c-0.162,0-0.32-0.013-0.479-0.014l0,0V17.8h0.062
				c0.109,0.001,0.323,0.048,0.323,0.347l0,0l-0.005,1.335l-0.007,0.007l-0.011,0.012l-1.571-1.776
				c-0.105,0-0.208,0.014-0.314,0.014l0,0c-0.131,0-0.263-0.013-0.391-0.014l0,0V17.8h0.031c0.166,0.001,0.336,0.126,0.336,0.333
				l0,0v1.486c0,0.283-0.08,0.463-0.333,0.465l0,0H28.91v0.075c0.153-0.001,0.31-0.014,0.465-0.014l0,0
				c0.147,0,0.294,0.013,0.44,0.014l0,0v-0.075h-0.045c-0.278,0-0.348-0.121-0.348-0.429l0,0v-1.494L31.257,20.211L31.257,20.211z
				 M31.186,19.478l0.011-0.01L31.186,19.478L31.186,19.478z M31.178,19.471V19.47l-0.002-0.002L31.178,19.471L31.178,19.471z"/>
		</g>
		<g>
			<path fill="#FFFFFF" d="M32.306,19.669c-0.036,0.12-0.079,0.212-0.079,0.275c0,0.107,0.149,0.123,0.265,0.123h0.039v0.107
				c-0.142-0.007-0.286-0.014-0.428-0.014c-0.127,0-0.254,0.007-0.381,0.014v-0.107h0.021c0.138,0,0.255-0.081,0.307-0.229
				l0.566-1.62c0.046-0.131,0.11-0.308,0.131-0.439c0.113-0.039,0.255-0.109,0.322-0.152c0.011-0.004,0.017-0.007,0.028-0.007
				c0.01,0,0.017,0,0.025,0.01c0.011,0.028,0.021,0.06,0.032,0.088l0.649,1.847c0.042,0.123,0.085,0.255,0.13,0.36
				c0.043,0.099,0.117,0.14,0.233,0.14h0.021v0.107c-0.159-0.007-0.318-0.014-0.487-0.014c-0.173,0-0.35,0.007-0.529,0.014v-0.107
				h0.039c0.081,0,0.218-0.013,0.218-0.102c0-0.046-0.031-0.141-0.071-0.255l-0.137-0.41h-0.802L32.306,19.669z M32.821,18.105
				h-0.007l-0.329,0.999h0.66L32.821,18.105z"/>
			<path fill="#FFFFFF" d="M34.186,20.189c-0.158-0.007-0.316-0.014-0.486-0.014l0,0c-0.173,0-0.348,0.008-0.529,0.014l0,0
				l-0.016,0.001v-0.016v-0.122h0.016h0.039c0.081,0,0.202-0.018,0.202-0.086l0,0c0.001-0.04-0.03-0.137-0.069-0.249l0,0l-0.134-0.4
				h-0.779l-0.11,0.356c-0.036,0.121-0.078,0.214-0.078,0.271l0,0c0.001,0.086,0.134,0.107,0.251,0.107l0,0h0.054v0.016v0.122
				l-0.016-0.001c-0.141-0.007-0.286-0.014-0.427-0.014l0,0c-0.127,0-0.254,0.008-0.38,0.014l0,0l-0.016,0.001v-0.016v-0.122h0.015
				h0.021c0.131,0,0.241-0.075,0.292-0.218l0,0l0.566-1.62c0.046-0.131,0.11-0.307,0.14-0.447l0,0
				c0.11-0.039,0.252-0.109,0.321-0.152l0,0c0.01-0.004,0.019-0.008,0.034-0.008l0,0c0.008-0.001,0.028,0.002,0.039,0.021l0,0
				c0.011,0.029,0.022,0.06,0.032,0.088l0,0l0.651,1.847c0.042,0.123,0.084,0.254,0.129,0.358l0,0
				c0.041,0.094,0.106,0.132,0.219,0.132l0,0h0.036v0.016v0.122L34.186,20.189L34.186,20.189z M33.186,20.157
				c0.174-0.005,0.346-0.013,0.514-0.013l0,0c0.164,0,0.318,0.007,0.471,0.013l0,0v-0.073h-0.005
				c-0.121,0.001-0.204-0.047-0.248-0.15l0,0c-0.046-0.107-0.089-0.238-0.13-0.362l0,0l-0.65-1.847
				c-0.011-0.028-0.021-0.06-0.03-0.085l0,0c-0.004-0.004-0.002-0.004-0.005-0.004l0,0c-0.002,0-0.004,0-0.007,0l0,0
				c-0.007,0-0.011,0.002-0.02,0.005l0,0c-0.068,0.044-0.21,0.114-0.315,0.141l0,0c-0.021,0.134-0.085,0.31-0.131,0.44l0,0
				l-0.564,1.621c-0.054,0.153-0.178,0.24-0.322,0.24l0,0h-0.005v0.073c0.121-0.005,0.243-0.013,0.366-0.013l0,0
				c0.137,0,0.276,0.007,0.411,0.013l0,0v-0.073h-0.022c-0.116-0.001-0.276-0.014-0.28-0.139l0,0c0-0.07,0.043-0.161,0.078-0.28l0,0
				l0.016,0.004l-0.016-0.005l0.116-0.377h0.823l0.141,0.419c0.04,0.114,0.072,0.208,0.072,0.259l0,0
				c-0.005,0.108-0.154,0.116-0.233,0.118l0,0h-0.024V20.157L33.186,20.157z M32.464,19.12l0.338-1.03h0.012h0.007v0.015
				l-0.004,0.001l0.004-0.001V18.09h0.011l0.335,1.03H32.464L32.464,19.12z M32.506,19.089h0.618l-0.307-0.947L32.506,19.089
				L32.506,19.089z M32.805,18.11l0.008-0.002L32.805,18.11L32.805,18.11z"/>
		</g>
		<g>
			<path fill="#FFFFFF" d="M34.343,17.886c-0.265,0-0.275,0.064-0.329,0.321h-0.107c0.014-0.099,0.032-0.197,0.043-0.3
				c0.014-0.099,0.021-0.198,0.021-0.3h0.085c0.028,0.106,0.117,0.102,0.212,0.102h1.822c0.095,0,0.183-0.003,0.19-0.109
				l0.085,0.014c-0.014,0.094-0.027,0.19-0.039,0.286c-0.008,0.095-0.008,0.191-0.008,0.286l-0.105,0.04
				c-0.006-0.131-0.024-0.34-0.261-0.34h-0.579v1.879c0,0.273,0.124,0.303,0.293,0.303h0.066v0.107
				c-0.137,0-0.384-0.014-0.575-0.014c-0.212,0-0.46,0.014-0.598,0.014v-0.107h0.067c0.195,0,0.294-0.017,0.294-0.295v-1.886H34.343
				z"/>
			<path fill="#FFFFFF" d="M35.733,20.189c-0.138,0-0.385-0.014-0.575-0.014l0,0c-0.211,0-0.458,0.014-0.598,0.014l0,0h-0.015
				v-0.015v-0.121h0.015h0.067c0.195-0.005,0.273-0.007,0.277-0.281l0,0v-1.871h-0.563v-0.015v-0.015h0.593v1.901
				c0,0.283-0.114,0.31-0.308,0.312l0,0h-0.052v0.075c0.14-0.002,0.377-0.014,0.582-0.014l0,0c0.184,0,0.421,0.013,0.56,0.014l0,0
				l-0.001-0.075h-0.052c-0.17-0.001-0.307-0.042-0.308-0.32l0,0v-1.894h0.594c0.238,0.001,0.268,0.202,0.275,0.333l0,0l0.077-0.028
				c0-0.091,0-0.184,0.008-0.277l0,0c0.01-0.091,0.023-0.181,0.036-0.271l0,0l-0.053-0.01c-0.017,0.102-0.116,0.108-0.205,0.107l0,0
				h-1.822c-0.007,0-0.013,0-0.018,0l0,0c-0.083,0.001-0.173-0.004-0.205-0.103l0,0h-0.058c-0.001,0.099-0.008,0.193-0.022,0.288
				l0,0c-0.01,0.097-0.027,0.19-0.04,0.283l0,0h0.076c0.046-0.246,0.076-0.326,0.341-0.321l0,0v0.015v0.015
				c-0.262,0.005-0.256,0.049-0.314,0.31l0,0l-0.002,0.012h-0.012H33.89l0.002-0.018c0.014-0.099,0.032-0.197,0.043-0.299l0,0
				c0.014-0.099,0.021-0.197,0.021-0.298l0,0v-0.016h0.016h0.096l0.003,0.011c0.025,0.089,0.09,0.09,0.18,0.091l0,0
				c0.006,0,0.012,0,0.018,0l0,0h1.822c0.097-0.002,0.169-0.004,0.175-0.096l0,0l0.001-0.016l0.017,0.003l0.1,0.016l-0.003,0.015
				c-0.015,0.095-0.028,0.19-0.039,0.285l0,0c-0.007,0.094-0.007,0.19-0.007,0.285l0,0v0.011l-0.011,0.004l-0.125,0.046v-0.021
				c-0.009-0.132-0.023-0.325-0.247-0.325l0,0h-0.564v1.864c0.004,0.267,0.109,0.285,0.277,0.289l0,0h0.082v0.014v0.122H35.733
				L35.733,20.189z"/>
		</g>
		<g>
			<path fill="#FFFFFF" d="M36.496,20.068h0.049c0.128,0,0.261-0.017,0.261-0.201v-1.85c0-0.184-0.134-0.201-0.261-0.201h-0.049
				v-0.107c0.138,0,0.349,0.014,0.522,0.014c0.177,0,0.388-0.014,0.555-0.014v0.107h-0.049c-0.128,0-0.263,0.017-0.263,0.201v1.85
				c0,0.184,0.135,0.201,0.263,0.201h0.049v0.107c-0.17,0-0.382-0.014-0.558-0.014c-0.174,0-0.381,0.014-0.519,0.014V20.068z"/>
			<path fill="#FFFFFF" d="M37.573,20.189c-0.171,0-0.382-0.014-0.558-0.014l0,0c-0.173,0-0.381,0.014-0.519,0.014l0,0h-0.015
				v-0.015v-0.107v-0.014h0.015h0.049c0.128-0.002,0.245-0.014,0.245-0.187l0,0v-1.85c-0.001-0.172-0.117-0.184-0.245-0.187l0,0
				h-0.064v-0.014v-0.122h0.015c0.138,0,0.35,0.014,0.522,0.014l0,0c0.177,0,0.388-0.014,0.555-0.014l0,0h0.014v0.014v0.122h-0.014
				h-0.049c-0.129,0.002-0.246,0.014-0.247,0.187l0,0v1.85c0.001,0.173,0.118,0.184,0.247,0.187l0,0h0.063v0.014v0.122H37.573
				L37.573,20.189z M37.557,20.158v-0.075h-0.033c-0.127,0-0.277-0.022-0.277-0.217l0,0v-1.85c0-0.195,0.15-0.217,0.277-0.217l0,0
				h0.033v-0.075c-0.163,0.001-0.366,0.014-0.539,0.014l0,0c-0.168,0-0.37-0.013-0.507-0.014l0,0V17.8h0.034
				c0.125,0,0.277,0.022,0.277,0.217l0,0v1.85c0,0.195-0.151,0.217-0.277,0.217l0,0h-0.034v0.075
				c0.137-0.002,0.336-0.014,0.504-0.014l0,0C37.186,20.145,37.391,20.157,37.557,20.158L37.557,20.158z"/>
		</g>
		<g>
			<path fill="#FFFFFF" d="M38.981,17.656c0.752,0,1.353,0.466,1.353,1.219c0,0.812-0.582,1.352-1.335,1.352
				c-0.749,0-1.32-0.508-1.32-1.268C37.679,18.226,38.247,17.656,38.981,17.656z M39.034,20.072c0.686,0,0.805-0.604,0.805-1.119
				c0-0.516-0.278-1.141-0.864-1.141c-0.618,0-0.801,0.551-0.801,1.023C38.173,19.468,38.462,20.072,39.034,20.072z"/>
			<path fill="#FFFFFF" d="M37.663,18.959c0.002-0.743,0.576-1.317,1.318-1.318l0,0v0.016v0.016c-0.727,0-1.288,0.561-1.288,1.287
				l0,0c0.001,0.751,0.565,1.252,1.306,1.252l0,0c0.744-0.001,1.318-0.533,1.32-1.337l0,0c-0.001-0.743-0.592-1.202-1.338-1.202l0,0
				v-0.016v-0.016c0.758,0.001,1.366,0.472,1.367,1.234l0,0c-0.001,0.821-0.59,1.367-1.349,1.368l0,0
				C38.244,20.241,37.664,19.726,37.663,18.959L37.663,18.959z M38.157,18.835c0.001-0.475,0.187-1.039,0.817-1.039l0,0
				c0.6,0.001,0.879,0.638,0.88,1.157l0,0c-0.001,0.514-0.122,1.133-0.82,1.133l0,0v-0.014v-0.015
				c0.672-0.001,0.788-0.589,0.79-1.104l0,0c0-0.512-0.276-1.125-0.85-1.126l0,0c-0.606,0.001-0.785,0.538-0.786,1.008l0,0
				c0.001,0.629,0.288,1.22,0.846,1.222l0,0v0.015v0.014C38.448,20.086,38.158,19.471,38.157,18.835L38.157,18.835z"/>
		</g>
		<g>
			<path fill="#FFFFFF" d="M42.714,19.478l0.007-0.007v-1.324c0-0.289-0.201-0.332-0.308-0.332h-0.076v-0.107
				c0.165,0,0.328,0.014,0.493,0.014c0.146,0,0.29-0.014,0.434-0.014v0.107h-0.053c-0.149,0-0.315,0.028-0.315,0.448v1.607
				c0,0.123,0.004,0.247,0.021,0.356h-0.134L40.965,18.2v1.454c0,0.308,0.06,0.413,0.332,0.413h0.06v0.107
				c-0.152,0-0.303-0.014-0.456-0.014c-0.159,0-0.322,0.014-0.481,0.014v-0.107h0.05c0.244,0,0.317-0.165,0.317-0.448v-1.487
				c0-0.198-0.162-0.317-0.321-0.317h-0.046v-0.107c0.135,0,0.272,0.014,0.406,0.014c0.106,0,0.208-0.014,0.314-0.014L42.714,19.478
				z"/>
			<path fill="#FFFFFF" d="M42.918,20.243l-0.146-0.005L40.98,18.24v1.415c0.004,0.308,0.051,0.394,0.316,0.397l0,0h0.077v0.016
				v0.121h-0.016c-0.153,0-0.304-0.014-0.456-0.014l0,0c-0.158,0-0.32,0.014-0.481,0.014l0,0h-0.014v-0.015v-0.122h0.014h0.05
				c0.233-0.001,0.3-0.15,0.302-0.432l0,0v-1.487c0-0.188-0.154-0.302-0.306-0.303l0,0h-0.06v-0.014v-0.122h0.014
				c0.135,0,0.273,0.014,0.406,0.014l0,0c0.104,0,0.206-0.014,0.326-0.008l0,0l1.551,1.746v-1.299
				c-0.001-0.281-0.188-0.315-0.292-0.317l0,0H42.32v-0.014v-0.122h0.016c0.166,0,0.33,0.014,0.493,0.014l0,0
				c0.146,0,0.289-0.014,0.436-0.014l0,0h0.015v0.014v0.122h-0.015h-0.053c-0.145,0.004-0.296,0.017-0.299,0.433l0,0v1.607
				c0,0.123,0.003,0.246,0.02,0.354l0,0l0.003,0.018H42.918L42.918,20.243z M42.783,20.211H42.9
				c-0.016-0.106-0.019-0.224-0.019-0.341l0,0v-1.607c0-0.424,0.178-0.463,0.33-0.463l0,0h0.038v-0.075
				c-0.14,0.001-0.28,0.014-0.421,0.014l0,0c-0.159,0-0.318-0.013-0.478-0.014l0,0V17.8h0.061c0.11,0.001,0.323,0.049,0.323,0.347
				l0,0l-0.004,1.335l-0.006,0.007l-0.011,0.012l-1.572-1.776c-0.104,0-0.207,0.014-0.314,0.014l0,0
				c-0.13,0-0.263-0.013-0.391-0.014l0,0V17.8h0.03c0.166,0.001,0.337,0.126,0.337,0.333l0,0v1.487c0,0.283-0.079,0.463-0.333,0.464
				l0,0h-0.035v0.075c0.153-0.001,0.31-0.014,0.465-0.014l0,0c0.147,0,0.294,0.013,0.44,0.014l0,0v-0.075h-0.046
				c-0.277,0-0.346-0.121-0.346-0.429l0,0v-1.494L42.783,20.211L42.783,20.211z M42.714,19.478l0.011-0.01L42.714,19.478
				L42.714,19.478z M42.705,19.471V19.47l-0.003-0.002L42.705,19.471L42.705,19.471z"/>
		</g>
		<g>
			<path fill="#FFFFFF" d="M43.832,19.669c-0.034,0.12-0.077,0.212-0.077,0.275c0,0.107,0.149,0.123,0.264,0.123h0.039v0.107
				c-0.141-0.007-0.286-0.014-0.427-0.014c-0.128,0-0.255,0.007-0.381,0.014v-0.107h0.02c0.138,0,0.256-0.081,0.308-0.229
				l0.566-1.62c0.046-0.131,0.109-0.308,0.13-0.439c0.113-0.039,0.254-0.109,0.321-0.152c0.011-0.004,0.018-0.007,0.029-0.007
				c0.01,0,0.017,0,0.024,0.01c0.011,0.028,0.021,0.06,0.032,0.088l0.649,1.847c0.042,0.123,0.085,0.255,0.131,0.36
				c0.042,0.099,0.117,0.14,0.233,0.14h0.021v0.107c-0.159-0.007-0.318-0.014-0.487-0.014c-0.173,0-0.35,0.007-0.53,0.014v-0.107
				h0.039c0.081,0,0.219-0.013,0.219-0.102c0-0.046-0.032-0.141-0.071-0.255l-0.137-0.41h-0.801L43.832,19.669z M44.347,18.105
				H44.34l-0.329,0.999h0.661L44.347,18.105z"/>
			<path fill="#FFFFFF" d="M45.713,20.189c-0.159-0.006-0.318-0.014-0.486-0.014l0,0c-0.172,0-0.35,0.008-0.53,0.014l0,0
				l-0.016,0.001v-0.016v-0.121h0.015h0.039c0.082,0,0.204-0.019,0.205-0.087l0,0c0.001-0.04-0.031-0.137-0.071-0.249l0,0
				l-0.134-0.4h-0.78l-0.109,0.356l0,0c-0.035,0.122-0.078,0.214-0.077,0.271l0,0c0,0.087,0.132,0.109,0.249,0.109l0,0h0.054v0.014
				v0.123l-0.016-0.001c-0.141-0.006-0.286-0.014-0.426-0.014l0,0c-0.127,0-0.254,0.008-0.381,0.014l0,0l-0.015,0.001v-0.016v-0.121
				h0.015h0.02c0.132-0.001,0.242-0.077,0.294-0.22l0,0l0.565-1.62c0.045-0.131,0.109-0.307,0.14-0.447l0,0
				c0.111-0.039,0.253-0.109,0.321-0.152l0,0c0.009-0.004,0.02-0.008,0.034-0.008l0,0c0.009-0.001,0.027,0.002,0.039,0.021l0,0
				c0.01,0.028,0.02,0.06,0.032,0.088l0,0l0.65,1.847c0.042,0.123,0.085,0.254,0.131,0.359l0,0c0.042,0.094,0.105,0.131,0.218,0.132
				l0,0h0.036v0.014v0.123L45.713,20.189L45.713,20.189z M44.713,20.158c0.174-0.006,0.346-0.013,0.514-0.013l0,0
				c0.164,0,0.318,0.007,0.471,0.013l0,0v-0.073h-0.005c-0.119,0-0.203-0.047-0.247-0.15l0,0c-0.047-0.107-0.089-0.238-0.131-0.362
				l0,0l-0.649-1.847c-0.011-0.028-0.022-0.06-0.031-0.084l0,0c-0.003-0.005-0.003-0.005-0.006-0.005l0,0c-0.001,0-0.004,0-0.006,0
				l0,0c-0.008,0-0.011,0.002-0.021,0.005l0,0c-0.068,0.043-0.209,0.114-0.315,0.141l0,0c-0.021,0.134-0.085,0.31-0.13,0.44l0,0
				l-0.566,1.621c-0.054,0.153-0.176,0.24-0.322,0.24l0,0h-0.005v0.073c0.122-0.005,0.244-0.013,0.367-0.013l0,0
				c0.137,0,0.276,0.007,0.413,0.013l0,0v-0.073h-0.025c-0.114-0.001-0.276-0.014-0.28-0.14l0,0c0.001-0.07,0.045-0.16,0.079-0.279
				l0,0l0.014,0.004l-0.014-0.005l0.116-0.377h0.824l0.141,0.419c0.04,0.114,0.071,0.208,0.071,0.259l0,0
				c-0.005,0.108-0.153,0.116-0.234,0.118l0,0h-0.023V20.158L44.713,20.158z M43.99,19.119l0.34-1.029h0.01h0.007v0.015
				l-0.003,0.001l0.003-0.001V18.09h0.011l0.334,1.029H43.99L43.99,19.119z M44.033,19.089h0.618l-0.308-0.945L44.033,19.089
				L44.033,19.089z M44.334,18.11l0.006-0.002L44.334,18.11L44.334,18.11z"/>
		</g>
		<g>
			<path fill="#FFFFFF" d="M46.604,19.828c0,0.141,0.098,0.184,0.211,0.198c0.145,0.011,0.304,0.011,0.467-0.007
				c0.147-0.017,0.275-0.102,0.338-0.191c0.056-0.078,0.088-0.176,0.11-0.255h0.102c-0.039,0.202-0.088,0.4-0.131,0.601
				c-0.311,0-0.622-0.014-0.931-0.014c-0.311,0-0.622,0.014-0.933,0.014v-0.107h0.049c0.128,0,0.266-0.017,0.266-0.236v-1.814
				c0-0.184-0.137-0.201-0.266-0.201h-0.049v-0.107c0.187,0,0.371,0.014,0.558,0.014c0.18,0,0.357-0.014,0.537-0.014v0.107h-0.089
				c-0.134,0-0.239,0.004-0.239,0.191V19.828z"/>
			<path fill="#FFFFFF" d="M47.701,20.189c-0.311,0-0.622-0.014-0.931-0.014l0,0c-0.311,0-0.622,0.014-0.934,0.014l0,0h-0.014
				v-0.015v-0.121h0.014h0.049c0.128-0.003,0.25-0.012,0.251-0.222l0,0v-1.815c-0.001-0.171-0.122-0.184-0.251-0.186l0,0h-0.064
				v-0.014v-0.122h0.014c0.188,0,0.372,0.014,0.558,0.014l0,0c0.18,0,0.356-0.014,0.537-0.014l0,0h0.014v0.014v0.122h-0.014h-0.089
				c-0.137,0.004-0.222-0.002-0.225,0.176l0,0v1.821c0.002,0.132,0.088,0.167,0.199,0.183l0,0c0.062,0.004,0.128,0.007,0.195,0.007
				l0,0c0.086,0,0.176-0.004,0.268-0.014l0,0c0.143-0.017,0.267-0.1,0.328-0.184l0,0c0.054-0.076,0.085-0.173,0.106-0.25l0,0
				l0.004-0.012h0.012h0.121l-0.004,0.019c-0.039,0.202-0.088,0.399-0.131,0.601l0,0l-0.004,0.011H47.701L47.701,20.189z
				 M47.689,20.158c0.041-0.191,0.087-0.379,0.124-0.57l0,0h-0.072c-0.021,0.078-0.053,0.172-0.109,0.249l0,0
				c-0.066,0.092-0.196,0.178-0.35,0.197l0,0c-0.093,0.01-0.184,0.014-0.27,0.014l0,0c-0.068,0-0.135-0.003-0.199-0.007l0,0
				c-0.114-0.013-0.226-0.062-0.225-0.213l0,0v-1.821c0-0.197,0.124-0.206,0.255-0.206l0,0h0.073v-0.075
				c-0.174,0.001-0.346,0.014-0.522,0.014l0,0c-0.184,0-0.362-0.013-0.543-0.014l0,0V17.8h0.034c0.126,0,0.28,0.022,0.28,0.216l0,0
				v1.815c0,0.229-0.153,0.253-0.28,0.253l0,0h-0.034v0.075c0.304-0.001,0.611-0.014,0.918-0.014l0,0
				C47.077,20.145,47.383,20.158,47.689,20.158L47.689,20.158z"/>
		</g>
		<path fill="#FFFFFF" d="M47.789,17.609c0.213,0,0.372,0.164,0.372,0.372s-0.159,0.371-0.372,0.371
			c-0.212,0-0.372-0.162-0.372-0.371S47.577,17.609,47.789,17.609z M47.789,18.283c0.166,0,0.294-0.141,0.294-0.301
			s-0.125-0.303-0.294-0.303c-0.168,0-0.295,0.143-0.295,0.303S47.622,18.283,47.789,18.283z M47.605,18.178v-0.019
			c0.045-0.006,0.054-0.004,0.054-0.033v-0.275c0-0.039-0.004-0.052-0.053-0.05v-0.019h0.191c0.065,0,0.125,0.032,0.125,0.099
			c0,0.056-0.036,0.096-0.088,0.113l0.061,0.085c0.029,0.038,0.061,0.075,0.082,0.087v0.012h-0.073
			c-0.035,0-0.065-0.073-0.133-0.171H47.73v0.123c0,0.025,0.008,0.023,0.054,0.029v0.019H47.605z M47.73,17.982h0.043
			c0.048,0,0.07-0.036,0.07-0.094c0-0.06-0.035-0.08-0.073-0.08H47.73V17.982z"/>
	</g>
	<path fill="#FFFFFF" d="M8.062,22.169c-3.414,0.016-6.223-2.749-6.223-6.116c0-3.679,2.809-6.224,6.223-6.223h1.6
		c3.373-0.001,6.452,2.543,6.452,6.223c0,3.365-3.079,6.116-6.452,6.116H8.062z M8.076,10.341c-3.119,0.001-5.647,2.529-5.647,5.648
		c0.001,3.119,2.528,5.646,5.647,5.647c3.12-0.001,5.648-2.528,5.648-5.647C13.723,12.87,11.195,10.342,8.076,10.341z M6.793,19.329
		v-6.681c-1.342,0.517-2.294,1.816-2.298,3.341C4.499,17.514,5.451,18.813,6.793,19.329z M11.656,15.989
		c-0.003-1.525-0.956-2.826-2.299-3.341v6.683C10.7,18.815,11.654,17.515,11.656,15.989z"/>
</g>
</svg>
