<?xml version="1.0" encoding="utf-8"?>
<!-- Generator: Adobe Illustrator 21.1.0, SVG Export Plug-In . SVG Version: 6.00 Build 0)  -->
<svg version="1.1" id="Layer_1" xmlns="http://www.w3.org/2000/svg" xmlns:xlink="http://www.w3.org/1999/xlink" x="0px" y="0px"
	 viewBox="0 0 50 32" enable-background="new 0 0 50 32" xml:space="preserve">
<linearGradient id="SVGID_1_" gradientUnits="userSpaceOnUse" x1="0" y1="16" x2="50" y2="16">
	<stop  offset="0" style="stop-color:#798ED1"/>
	<stop  offset="1" style="stop-color:#6565C6"/>
</linearGradient>
<path fill="url(#SVGID_1_)" d="M48,32H2c-1.105,0-2-0.895-2-2V2c0-1.105,0.895-2,2-2h46c1.105,0,2,0.895,2,2v28
	C50,31.105,49.105,32,48,32z"/>
<path opacity="0.7" fill="#FFFFFF" enable-background="new    " d="M19.702,9.157l-5.765,13.722h-3.761L7.339,11.928
	c-0.172-0.673-0.322-0.921-0.844-1.205c-0.856-0.464-2.268-0.897-3.51-1.167l0.084-0.399h6.054c0.771,0,1.465,0.513,1.641,1.398
	l1.499,7.941l3.701-9.339L19.702,9.157z M34.437,18.399c0.016-3.621-5.017-3.822-4.984-5.44c0.011-0.492,0.481-1.016,1.509-1.15
	c0.51-0.065,1.915-0.118,3.509,0.614l0.623-2.911c-0.856-0.309-1.958-0.606-3.328-0.606c-3.518,0-5.992,1.864-6.012,4.535
	c-0.023,1.975,1.768,3.077,3.114,3.735c1.387,0.672,1.852,1.105,1.846,1.705c-0.01,0.92-1.107,1.328-2.128,1.344
	c-1.79,0.028-2.828-0.483-3.655-0.868l-0.646,3.008c0.833,0.38,2.367,0.711,3.955,0.728C31.981,23.094,34.426,21.252,34.437,18.399
	 M43.725,22.879h3.29L44.142,9.157h-3.035c-0.684,0-1.26,0.396-1.515,1.006l-5.339,12.715h3.736l0.741-2.049h4.564L43.725,22.879z
	 M39.754,18.017l1.873-5.153l1.078,5.153H39.754z M24.786,9.157l-2.942,13.722h-3.558l2.942-13.722H24.786z"/>
</svg>
